{
    "android23": {
      "browserName": "",
      "appiumVersion": "1.4.16",
      "deviceName": "Samsung Galaxy S4 Emulator",
      "platformVersion": "4.4",
      "platformName": "Android",
      "name": "Sample Native",
      "app": "mvmc-debug.apk"
    }
}
